[gd_scene load_steps=3 format=2]

[ext_resource path="res://KMenu/Globals/Options.gd" type="Script" id=1]
[ext_resource path="res://KMenu/Assets/Music/Menu/Essence.wav" type="AudioStream" id=2]

[node name="Options" type="Control"]
margin_right = 40.0
margin_bottom = 40.0
script = ExtResource( 1 )

[node name="Music" type="AudioStreamPlayer2D" parent="."]
stream = ExtResource( 2 )
