[gd_resource type="ShaderMaterial" load_steps=2 format=2]

[ext_resource path="res://shaders/cloudy_shader.tres" type="Shader" id=1]

[resource]
resource_local_to_scene = true
shader = ExtResource( 1 )
